<?xml version="1.0" encoding="UTF-8" standalone="no"?>
<!DOCTYPE svg PUBLIC "-//W3C//DTD SVG 1.1//EN" "http://www.w3.org/Graphics/SVG/1.1/DTD/svg11.dtd">
<svg width="100%" height="100%" viewBox="0 0 72 72" version="1.1" xmlns="http://www.w3.org/2000/svg" xmlns:xlink="http://www.w3.org/1999/xlink" xml:space="preserve" xmlns:serif="http://www.serif.com/" style="fill-rule:evenodd;clip-rule:evenodd;stroke-linejoin:round;stroke-miterlimit:2;">
    <g transform="matrix(0.13988,0,0,0.13988,0,0)">
        <circle cx="256" cy="256" r="256" style="fill:url(#_Linear1);"/>
    </g>
    <g transform="matrix(0.162493,0,0,0.162493,11.4312,11.7235)">
        <path d="M24.8,199.9L24.8,99.4C25.2,96.5 25.8,93.6 26,90.8C28.2,54.5 54.4,26.8 90.7,25.6C130.4,24.4 170.2,24.4 209.9,25.6C246.2,26.7 273.5,54.4 274.5,90.6C275.6,129.9 275.4,169.3 274.5,208.5C273.7,240.3 253.2,264.3 222.2,271.6C214.3,273.5 206.1,274 198.1,275.2L101.4,275.2C98.1,274.8 94.9,274.2 91.6,274C59.1,272.1 34.3,251.1 27.7,219.6C26.4,213.1 25.8,206.5 24.8,199.9ZM150.4,251.5C168.6,251.5 186.8,252 205,251.4C233.7,250.4 251.5,232.9 252,204.1C252.7,167.7 252.7,131.3 252,94.9C251.4,66.5 233.7,48.7 205.2,48.1C168.6,47.3 132,47.3 95.4,48.1C66.9,48.7 49.4,66.3 48.7,95C47.9,131.4 47.9,167.8 48.7,204.2C49.3,233.4 67,250.5 96.4,251.5C114.4,252.1 132.4,251.5 150.4,251.5Z" style="fill:white;"/>
        <path d="M150.4,214.1C114.4,214.1 85.9,185.4 86,149.5C86.1,113.5 114.8,85.1 150.7,85.3C186.4,85.5 214.7,113.8 214.8,149.5C214.9,185.4 186.3,214.1 150.4,214.1ZM192,150C192.1,126.6 173.8,108.1 150.5,108C127.1,108 108.7,126.2 108.7,149.6C108.7,172.7 126.9,191.1 149.8,191.3C173.3,191.4 191.9,173.2 192,150Z" style="fill:white;"/>
        <path d="M232.3,82.4C232.4,90.8 225.9,97.7 217.6,97.9C209.5,98.1 202.3,91.2 202.1,83C201.9,74.8 208.7,67.9 217.1,67.8C225.7,67.6 232.2,73.8 232.3,82.4Z" style="fill:white;"/>
    </g>
    <defs>
        <linearGradient id="_Linear1" x1="0" y1="0" x2="1" y2="0" gradientUnits="userSpaceOnUse" gradientTransform="matrix(-361.223,327.123,-327.123,-361.223,457.836,98.5838)"><stop offset="0" style="stop-color:rgb(171,66,180);stop-opacity:1"/><stop offset="0.49" style="stop-color:rgb(221,70,122);stop-opacity:1"/><stop offset="1" style="stop-color:rgb(250,199,118);stop-opacity:1"/></linearGradient>
    </defs>
</svg>
